Солнечно|photo-188326038_457239064
Облачность|photo-188326038_457239059
Переменная облачность|photo-188326038_457239060
Дождь|photo-188326038_457239051
Снег|photo-188326038_457239063
Град|photo-188326038_457239049
Снег с дождем|photo-188326038_457239062
Жара|photo-188326038_457239053
Ливень|photo-188326038_457239055
Морось|photo-188326038_457239058
Ветер|photo-188326038_457239048
Легкий снег|photo-188326038_457239054
Гроза|photo-188326038_457239050
Метель|photo-188326038_457239056
Мороз|photo-188326038_457239057
Дымка|photo-188326038_457239052
Смог|photo-188326038_457239061
Туман|photo-188326038_457239065
облачно с прояснениями|photo-188326038_457239060
пасмурно|photo-188326038_457239066